${AnsiColor.BRIGHT_YELLOW}

        ,--,               ,----..
      ,--.'|  ,----..     /   /   \      ,---,        ,---,.
   ,--,  | : /   /   \   /   .     :   .'  .' `\    ,'  .' |
,---.'|  : '|   :     : .   /   ;.  \,---.'     \ ,---.'   |
|   | : _' |.   |  ;. /.   ;   /  ` ;|   |  .`\  ||   |   .'
:   : |.'  |.   ; /--` ;   |  ; \ ; |:   : |  '  |:   :  |-,
|   ' '  ; :;   | ;    |   :  | ; | '|   ' '  ;  ::   |  ;/|
'   |  .'. ||   : |    .   |  ' ' ' :'   | ;  .  ||   :   .'
|   | :  | '.   | '___ '   ;  \; /  ||   | :  |  '|   |  |-,
'   : |  : ;'   ; : .'| \   \  ',  / '   : | /  ; '   :  ;/|
|   | '  ,/ '   | '/  :  ;   :    /  |   | '` ,/  |   |    \
;   : ;--'  |   :    /    \   \ .'   ;   :  .'    |   :   .'
|   ,/       \   \ .'      `---`     |   ,.'      |   | ,'
'---'         `---`                  '---'        `----'
            Hcode Online Judge(HOJ) - Backend
                    @Author Himit_ZH
                    @Last Update 20221002
          ->Github<- https://www.github.com/HimitZH/HOJ
          ->Gitee<-  https://gitee.com/himitzh0730/hoj